
SINUSOIDAL PROJECTION PARAMETERS:

   Radius of Sphere:     6370997.000000 meters
   Longitude of Center:     -60.000000 degrees
   False Easting:      0.000000 meters 
   False Northing:     0.000000 meters 

SINUSOIDAL PROJECTION PARAMETERS:

   Radius of Sphere:     6370997.000000 meters
   Longitude of Center:     -60.000000 degrees
   False Easting:      0.000000 meters 
   False Northing:     0.000000 meters 

SINUSOIDAL PROJECTION PARAMETERS:

   Radius of Sphere:     6370997.000000 meters
   Longitude of Center:     -60.000000 degrees
   False Easting:      0.000000 meters 
   False Northing:     0.000000 meters 

SINUSOIDAL PROJECTION PARAMETERS:

   Radius of Sphere:     6370997.000000 meters
   Longitude of Center:     -60.000000 degrees
   False Easting:      0.000000 meters 
   False Northing:     0.000000 meters 

SINUSOIDAL PROJECTION PARAMETERS:

   Radius of Sphere:     6370997.000000 meters
   Longitude of Center:     -60.000000 degrees
   False Easting:      0.000000 meters 
   False Northing:     0.000000 meters 

SINUSOIDAL PROJECTION PARAMETERS:

   Radius of Sphere:     6370997.000000 meters
   Longitude of Center:     -60.000000 degrees
   False Easting:      0.000000 meters 
   False Northing:     0.000000 meters 

SINUSOIDAL PROJECTION PARAMETERS:

   Radius of Sphere:     6370997.000000 meters
   Longitude of Center:     -60.000000 degrees
   False Easting:      0.000000 meters 
   False Northing:     0.000000 meters 

SINUSOIDAL PROJECTION PARAMETERS:

   Radius of Sphere:     6370997.000000 meters
   Longitude of Center:     -60.000000 degrees
   False Easting:      0.000000 meters 
   False Northing:     0.000000 meters 

SINUSOIDAL PROJECTION PARAMETERS:

   Radius of Sphere:     6370997.000000 meters
   Longitude of Center:     -60.000000 degrees
   False Easting:      0.000000 meters 
   False Northing:     0.000000 meters 

SINUSOIDAL PROJECTION PARAMETERS:

   Radius of Sphere:     6370997.000000 meters
   Longitude of Center:     -60.000000 degrees
   False Easting:      0.000000 meters 
   False Northing:     0.000000 meters 

SINUSOIDAL PROJECTION PARAMETERS:

   Radius of Sphere:     6370997.000000 meters
   Longitude of Center:     -60.000000 degrees
   False Easting:      0.000000 meters 
   False Northing:     0.000000 meters 

SINUSOIDAL PROJECTION PARAMETERS:

   Radius of Sphere:     6370997.000000 meters
   Longitude of Center:     -60.000000 degrees
   False Easting:      0.000000 meters 
   False Northing:     0.000000 meters 

SINUSOIDAL PROJECTION PARAMETERS:

   Radius of Sphere:     6370997.000000 meters
   Longitude of Center:     -60.000000 degrees
   False Easting:      0.000000 meters 
   False Northing:     0.000000 meters 

SINUSOIDAL PROJECTION PARAMETERS:

   Radius of Sphere:     6370997.000000 meters
   Longitude of Center:     -60.000000 degrees
   False Easting:      0.000000 meters 
   False Northing:     0.000000 meters 

SINUSOIDAL PROJECTION PARAMETERS:

   Radius of Sphere:     6370997.000000 meters
   Longitude of Center:     -60.000000 degrees
   False Easting:      0.000000 meters 
   False Northing:     0.000000 meters 

SINUSOIDAL PROJECTION PARAMETERS:

   Radius of Sphere:     6370997.000000 meters
   Longitude of Center:     -60.000000 degrees
   False Easting:      0.000000 meters 
   False Northing:     0.000000 meters 

SINUSOIDAL PROJECTION PARAMETERS:

   Radius of Sphere:     6370997.000000 meters
   Longitude of Center:     -60.000000 degrees
   False Easting:      0.000000 meters 
   False Northing:     0.000000 meters 

SINUSOIDAL PROJECTION PARAMETERS:

   Radius of Sphere:     6370997.000000 meters
   Longitude of Center:     -60.000000 degrees
   False Easting:      0.000000 meters 
   False Northing:     0.000000 meters 

SINUSOIDAL PROJECTION PARAMETERS:

   Radius of Sphere:     6370997.000000 meters
   Longitude of Center:     -60.000000 degrees
   False Easting:      0.000000 meters 
   False Northing:     0.000000 meters 

SINUSOIDAL PROJECTION PARAMETERS:

   Radius of Sphere:     6370997.000000 meters
   Longitude of Center:     -60.000000 degrees
   False Easting:      0.000000 meters 
   False Northing:     0.000000 meters 

SINUSOIDAL PROJECTION PARAMETERS:

   Radius of Sphere:     6370997.000000 meters
   Longitude of Center:     -60.000000 degrees
   False Easting:      0.000000 meters 
   False Northing:     0.000000 meters 

SINUSOIDAL PROJECTION PARAMETERS:

   Radius of Sphere:     6370997.000000 meters
   Longitude of Center:     -60.000000 degrees
   False Easting:      0.000000 meters 
   False Northing:     0.000000 meters 

SINUSOIDAL PROJECTION PARAMETERS:

   Radius of Sphere:     6370997.000000 meters
   Longitude of Center:     -60.000000 degrees
   False Easting:      0.000000 meters 
   False Northing:     0.000000 meters 

SINUSOIDAL PROJECTION PARAMETERS:

   Radius of Sphere:     6370997.000000 meters
   Longitude of Center:     -60.000000 degrees
   False Easting:      0.000000 meters 
   False Northing:     0.000000 meters 

SINUSOIDAL PROJECTION PARAMETERS:

   Radius of Sphere:     6370997.000000 meters
   Longitude of Center:     -60.000000 degrees
   False Easting:      0.000000 meters 
   False Northing:     0.000000 meters 
